<?xml version="1.0" encoding="utf-8"?>
<!-- Generator: Adobe Illustrator 16.0.0, SVG Export Plug-In . SVG Version: 6.00 Build 0)  -->
<!DOCTYPE svg PUBLIC "-//W3C//DTD SVG 1.1//EN" "http://www.w3.org/Graphics/SVG/1.1/DTD/svg11.dtd">
<svg version="1.1" id="Layer_1" xmlns="http://www.w3.org/2000/svg" xmlns:xlink="http://www.w3.org/1999/xlink" x="0px" y="0px"
	 width="24px" height="24px" viewBox="0 0 24 24" enable-background="new 0 0 24 24" xml:space="preserve">
<path d="M16.995,13.619c-0.011,1.916-1.571,3.471-3.489,3.471s-3.479-1.555-3.49-3.471v-1.562l4.875-1.764V8.163l-4.875,1.764V8.154
	l4.875-1.765V4.258l-4.875,1.765V3H8.011v3.749L5,7.839V9.97l3.011-1.09v1.772L5,11.742v2.131l3.011-1.09v1.174v0.012
	c0.185,2.867,2.581,5.127,5.495,5.127c3.028,0,5.483-2.451,5.494-5.477H16.995z"/>
</svg>
